                        .module device.c
                        .area text(rom, con, rel)
 0000                   .dbfile device.c
 0000                   .dbfile C:\Users\afaustas\Documents\Programming_Projects\AFCALC_PROJECT\FW20110106\device.c
 0000                   .dbfunc e read_device _read_device fc
 0000           ;        address -> y+6
 0000           ;          bytes -> R12,R13
 0000           ;         buffer -> R10,R11
                        .even
 0000           _read_device::
 0000 0E940000          xcall push_xgset003C
 0004 6901              movw R12,R18
 0006 5801              movw R10,R16
 0008 2297              sbiw R28,2
 000A                   .dbline -1
 000A                   .dbline 19
 000A           ; /* 
 000A           ; 
 000A           ;       Original file name: device.c
 000A           ;       Name                      : Communication with EEPROM. For SFS driver.
 000A           ;       Version                   : v1.0
 000A           ;       Date                      : 2010-09-05
 000A           ;       Compiler                  : ImageCraft ICCAVR
 000A           ;       
 000A           ;       Description: Sios funkcijos skirtos, kad SFS failu sistemos drai-
 000A           ;       veris galetu bendrauti su EEPROM'u. Dabar naudojamas  vidinis  uC
 000A           ;       EEPROM'as, bet veliau planuoju naudoti isorini, didesni.
 000A           ; 
 000A           ;                         (c)Copyleft 2010, Azuolas - Faustas BAGDONAS
 000A           ; 
 000A           ; */
 000A           ; 
 000A           ; #include "device.h" 
 000A           ; 
 000A           ; BOOL read_device(char *buffer, unsigned int bytes, unsigned long int address){
 000A                   .dbline 20
 000A           ;   EEPROMReadBytes(address, buffer, bytes);
 000A D982              std y+1,R13
 000C C882              std y+0,R12
 000E 9501              movw R18,R10
 0010 0E81              ldd R16,y+6
 0012 1F81              ldd R17,y+7
 0014 0E940000          xcall _EEPROMReadBytes
 0018                   .dbline 21
 0018           ;   return TRUE;
 0018 01E0              ldi R16,1
 001A                   .dbline -2
 001A           L1:
 001A                   .dbline 0 ; func end
 001A 2296              adiw R28,2
 001C 0C940000          xjmp pop_xgset003C
 0020                   .dbsym l address 6 l
 0020                   .dbsym r bytes 12 i
 0020                   .dbsym r buffer 10 pc
 0020                   .dbend
 0020                   .dbfunc e write_device _write_device fc
 0020           ;        address -> R10,R11
 0020           ;          bytes -> R14,R15
 0020           ;         buffer -> R12,R13
                        .even
 0020           _write_device::
 0020 0E940000          xcall push_xgset00FC
 0024 7901              movw R14,R18
 0026 6801              movw R12,R16
 0028 2297              sbiw R28,2
 002A A884              ldd R10,y+8
 002C B984              ldd R11,y+9
 002E                   .dbline -1
 002E                   .dbline 24
 002E           ; }
 002E           ; 
 002E           ; BOOL write_device(char *buffer, unsigned int bytes, unsigned int address){
 002E                   .dbline 25
 002E           ;   EEPROMWriteBytes(address, buffer, bytes);
 002E F982              std y+1,R15
 0030 E882              std y+0,R14
 0032 9601              movw R18,R12
 0034 8501              movw R16,R10
 0036 0E940000          xcall _EEPROMWriteBytes
 003A                   .dbline 26
 003A           ;   return TRUE;
 003A 01E0              ldi R16,1
 003C                   .dbline -2
 003C           L2:
 003C                   .dbline 0 ; func end
 003C 2296              adiw R28,2
 003E 0C940000          xjmp pop_xgset00FC
 0042                   .dbsym r address 10 i
 0042                   .dbsym r bytes 14 i
 0042                   .dbsym r buffer 12 pc
 0042                   .dbend
 0042                   .dbfunc e read_byte _read_byte fc
 0042           ;        address -> R10,R11
                        .even
 0042           _read_byte::
 0042 AA92              st -y,R10
 0044 BA92              st -y,R11
 0046 5801              movw R10,R16
 0048                   .dbline -1
 0048                   .dbline 29
 0048           ; }
 0048           ; 
 0048           ; char read_byte(unsigned int address){
 0048                   .dbline 30
 0048           ;   return EEPROMread(address);
 0048 8501              movw R16,R10
 004A 0E940000          xcall _EEPROMread
 004E                   .dbline -2
 004E           L3:
 004E                   .dbline 0 ; func end
 004E B990              ld R11,y+
 0050 A990              ld R10,y+
 0052 0895              ret
 0054                   .dbsym r address 10 i
 0054                   .dbend
 0054                   .dbfunc e write_byte _write_byte fc
 0054           ;           byte -> R12
 0054           ;        address -> R10,R11
                        .even
 0054           _write_byte::
 0054 0E940000          xcall push_xgset303C
 0058 C22E              mov R12,R18
 005A 5801              movw R10,R16
 005C                   .dbline -1
 005C                   .dbline 33
 005C           ; }
 005C           ; 
 005C           ; BOOL write_byte(unsigned int address, char byte){
 005C                   .dbline 34
 005C           ;   return (EEPROMwrite(address, byte)) ? FALSE : TRUE;
 005C 2C2D              mov R18,R12
 005E 8501              movw R16,R10
 0060 0E940000          xcall _EEPROMwrite
 0064 0030              cpi R16,0
 0066 0107              cpc R16,R17
 0068 19F0              breq L5
 006A           X0:
 006A 4427              clr R20
 006C 5527              clr R21
 006E 02C0              xjmp L6
 0070           L5:
 0070 41E0              ldi R20,1
 0072 50E0              ldi R21,0
 0074           L6:
 0074 042F              mov R16,R20
 0076                   .dbline -2
 0076           L4:
 0076                   .dbline 0 ; func end
 0076 0C940000          xjmp pop_xgset303C
 007A                   .dbsym r byte 12 c
 007A                   .dbsym r address 10 i
 007A                   .dbend
 007A                   .dbfunc e get_device_size _get_device_size fl
                        .even
 007A           _get_device_size::
 007A                   .dbline -1
 007A                   .dbline 37
 007A           ; }
 007A           ; 
 007A           ; unsigned long int get_device_size(void){
 007A                   .dbline 38
 007A           ;   return 1024;
 007A 00E0              ldi R16,0
 007C 14E0              ldi R17,4
 007E 20E0              ldi R18,0
 0080 30E0              ldi R19,0
 0082                   .dbline -2
 0082           L7:
 0082                   .dbline 0 ; func end
 0082 0895              ret
 0084                   .dbend
 0084           ; }
 0084           ; 
